collected_date,reported_date,school_board,municipality,confirmed_school_partner_cases
2021-09-14,2021-09-16,Ottawa-Carleton DSB,Ottawa,1
2021-09-20,2021-09-22,Provincial and Demonstration Schools Branch,London,1
2021-10-18,2021-10-19,York Region District School Board,Richmond Hill,1
