report_date,schools_closed,total_schools
2022-01-21,16,4844
2022-01-24,11,4844
2022-01-25,4,4844
2022-01-26,7,4844
2022-01-27,7,4844
2022-01-28,8,4844
2022-01-31,8,4844
2022-02-01,7,4844
2022-02-02,7,4844
2022-02-03,13,4844
2022-02-04,9,4844
2022-02-07,5,4844
2022-02-08,4,4844
2022-02-09,4,4844
2022-02-10,5,4844
2022-02-11,5,4844
2022-02-14,5,4844
2022-02-15,3,4844
2022-02-16,4,4844
2022-02-17,4,4844
2022-02-18,3,4844
2022-02-22,2,4844
2022-02-23,2,4844
2022-02-24,2,4844
2022-02-25,2,4844
2022-02-25,2,4844
2022-02-28,2,4844
2022-03-01,2,4844
2022-03-02,2,4844
2022-03-03,2,4844
2022-03-04,2,4844
2022-03-07,1,4844
2022-03-08,1,4844
2022-03-09,0,4844
2022-03-10,0,4844
2022-03-11,0,4844
2022-03-21,0,4844
2022-03-22,0,4844
2022-03-23,0,4844
2022-03-24,0,4844
2022-03-25,0,4844
2022-03-28,0,4844
2022-03-29,0,4844
2022-03-30,0,4844
2022-03-31,0,4844
2022-04-01,1,4844
2022-04-04,1,4844
2022-04-05,0,4844
2022-04-06,0,4844
2022-04-07,1,4844
2022-04-08,4,4844
2022-04-11,2,4844
2022-04-12,1,4844
2022-04-13,2,4844
2022-04-14,2,4844
2022-04-19,0,4844
2022-04-20,0,4844
2022-04-21,0,4844
2022-04-22,0,4844
2022-04-25,0,4844
2022-04-26,0,4844
2022-04-27,0,4844
2022-04-28,0,4844
2022-04-29,0,4844
2022-05-02,0,4844
2022-05-03,0,4844
2022-05-04,0,4844
2022-05-05,0,4844
2022-05-06,0,4844
2022-05-09,0,4844
2022-05-10,1,4844
2022-05-11,1,4844
2022-05-12,1,4844
2022-05-13,1,4844
2022-05-16,0,4844
2022-05-17,0,4844
2022-05-18,0,4844
2022-05-19,0,4844
2022-05-20,0,4844
2022-05-24,0,4844
2022-05-25,0,4844
2022-05-26,0,4844
2022-05-27,0,4844
2022-05-30,0,4844
2022-05-31,0,4844
2022-06-01,0,4844
2022-06-02,0,4844
2022-06-03,0,4844
2022-06-06,0,4844
2022-06-07,0,4844
2022-06-08,0,4844
2022-06-09,0,4844
2022-06-10,0,4844
2022-06-13,0,4844